<!--decoded base64 from reactjs.org-->
<svg xmlns="http://www.w3.org/2000/svg" viewBox="-11.7 -10.25 23.4 20.5">
	<circle r="2.05" fill="#61dafb"/>
	<g stroke="#61dafb" stroke-width="1" fill="none">
		<ellipse rx="11" ry="4.2"/>
		<ellipse rx="11" ry="4.2" transform="rotate(60)"/>
		<ellipse rx="11" ry="4.2" transform="rotate(120)"/>
	</g>
</svg>
